…
library(dplyr)
### Find unique rows of columns x and y
df %>% 
    distinct(x, y)

## 2.
semi_join(df1, df2, by = "customer_id")
semi_join ?


## 3. T/F일때, mean해주면 percentage

Following is a preview of the tibble trains: 
### A tibble: 20 x 3
      id cancelled delayed
   <chr>     <dbl>   <lgl>
 1   F28         0   FALSE
 2   I38        NA   FALSE
 3   J39         0   FALSE
 4   T21         1    TRUE
 5   T30         1    TRUE
 6   N20        NA    TRUE
 # ... with 14 more rows
…
